Architectural lab/DR Pro/Final/COUNTER_3/COUNTER_3/simulation/qsim/COUNTER_3.msim.vcd
$comment
	File created using the following command:
		vcd file COUNTER_3.msim.vcd -direction
$end
$date
	Thu Jan 05 13:17:10 2023
$end
$version
	ModelSim Version 10.5b
$end
$timescale
	1ps
$end

$scope module COUNTER_3_vlg_vec_tst $end
$var reg 1 ! CLK $end
$var reg 1 " HIGH $end
$var wire 1 # a [6] $end
$var wire 1 $ a [5] $end
$var wire 1 % a [4] $end
$var wire 1 & a [3] $end
$var wire 1 ' a [2] $end
$var wire 1 ( a [1] $end
$var wire 1 ) a [0] $end
$var wire 1 * LED [3] $end
$var wire 1 + LED [2] $end
$var wire 1 , LED [1] $end
$var wire 1 - LED [0] $end

$scope module i1 $end
$var wire 1 . gnd $end
$var wire 1 / vcc $end
$var wire 1 0 unknown $end
$var tri1 1 1 devclrn $end
$var tri1 1 2 devpor $end
$var tri1 1 3 devoe $end
$var wire 1 4 ~QUARTUS_CREATED_GND~I_combout $end
$var wire 1 5 CLK~input_o $end
$var wire 1 6 inst~0_combout $end
$var wire 1 7 HIGH~input_o $end
$var wire 1 8 inst~q $end
$var wire 1 9 inst1~0_combout $end
$var wire 1 : inst1~feeder_combout $end
$var wire 1 ; inst1~q $end
$var wire 1 < inst2~0_combout $end
$var wire 1 = inst2~feeder_combout $end
$var wire 1 > inst2~q $end
$var wire 1 ? inst8~q $end
$var wire 1 @ inst8~0_combout $end
$var wire 1 A inst8~feeder_combout $end
$var wire 1 B inst8~DUPLICATE_q $end
$var wire 1 C inst4|Mux0~0_combout $end
$var wire 1 D inst4|Mux1~0_combout $end
$var wire 1 E inst4|Mux2~0_combout $end
$var wire 1 F inst4|Mux3~0_combout $end
$var wire 1 G inst4|Mux4~0_combout $end
$var wire 1 H inst4|Mux5~0_combout $end
$var wire 1 I inst4|Mux6~0_combout $end
$upscope $end
$upscope $end
$enddefinitions $end
#0
$dumpvars
0!
1"
0)
0(
0'
0&
0%
0$
1#
0-
0,
0+
0*
0.
1/
x0
11
12
13
04
05
16
17
08
19
1:
0;
1<
1=
0>
0?
1@
1A
0B
0C
0D
0E
0F
0G
0H
0I
$end
#5000
1!
15
#10000
0!
05
18
1-
06
1I
1F
1E
1D
1$
1%
1&
1)
#15000
1!
15
#20000
0!
05
08
0-
16
0I
0F
0E
0D
0$
0%
0&
0)
1;
1,
1C
09
1G
1D
1$
1'
0#
0:
#25000
1!
15
#30000
0!
05
18
1-
06
0G
1E
1%
0'
#35000
1!
15
#40000
0!
05
08
0-
16
1G
0E
0%
1'
0;
0,
0C
19
0G
0D
0$
0'
1#
1:
1>
1+
1C
0<
1I
1F
1E
1%
1&
1)
0#
0=
#45000
1!
15
#50000
0!
05
18
1-
06
0I
1H
0F
0&
1(
0)
#55000
1!
15
#60000
0!
05
08
0-
16
1I
0H
1F
1&
0(
1)
1;
1,
09
0I
1H
0F
0E
0%
0&
1(
0)
0:
#65000
1!
15
#70000
0!
05
18
1-
0C
06
0H
1F
1E
1D
1$
1%
1&
0(
1#
#75000
1!
15
#80000
0!
05
08
0-
1C
16
1H
0F
0E
0D
0$
0%
0&
1(
0#
0;
0,
19
1I
0H
1F
1E
1%
1&
0(
1)
1:
0>
0+
0C
1<
0I
0F
0E
0%
0&
0)
1#
1=
1?
1B
1*
0@
1C
0#
0A
#85000
1!
15
#90000
0!
05
18
1-
06
1E
1%
#95000
1!
15
#100000
0!
05
08
0-
16
0E
0%
1;
1,
09
1F
1&
0:
#105000
1!
15
#110000
0!
05
18
1-
06
1I
1H
0F
0&
1(
1)
#115000
1!
15
#120000
0!
05
08
0-
16
0I
0H
1F
1&
0(
0)
0;
0,
19
0F
0&
1:
1>
1+
0C
0<
1H
1G
1'
1(
1#
0=
#125000
1!
15
#130000
0!
05
18
1-
1C
06
1I
0H
0G
1D
1$
0'
0(
1)
0#
#135000
1!
15
#140000
0!
05
08
0-
0C
16
0I
1H
1G
0D
0$
1'
1(
0)
1#
1;
1,
1C
09
0#
0:
#145000
1!
15
#150000
0!
05
18
1-
06
1F
1&
#155000
1!
15
#160000
0!
05
08
0-
16
0F
0&
0;
0,
0C
19
1#
1:
0>
0+
1C
1<
0H
0G
0'
0(
0#
1=
0?
0B
0*
1@
0C
1#
1A
#165000
1!
15
#170000
0!
05
18
1-
06
1I
1F
1E
1D
1$
1%
1&
1)
#175000
1!
15
#180000
0!
05
08
0-
16
0I
0F
0E
0D
0$
0%
0&
0)
1;
1,
1C
09
1G
1D
1$
1'
0#
0:
#185000
1!
15
#190000
0!
05
18
1-
06
0G
1E
1%
0'
#195000
1!
15
#200000
0!
05
08
0-
16
1G
0E
0%
1'
0;
0,
0C
19
0G
0D
0$
0'
1#
1:
1>
1+
1C
0<
1I
1F
1E
1%
1&
1)
0#
0=
#205000
1!
15
#210000
0!
05
18
1-
06
0I
1H
0F
0&
1(
0)
#215000
1!
15
#220000
0!
05
08
0-
16
1I
0H
1F
1&
0(
1)
1;
1,
09
0I
1H
0F
0E
0%
0&
1(
0)
0:
#225000
1!
15
#230000
0!
05
18
1-
0C
06
0H
1F
1E
1D
1$
1%
1&
0(
1#
#235000
1!
15
#240000
0!
05
08
0-
1C
16
1H
0F
0E
0D
0$
0%
0&
1(
0#
0;
0,
19
1I
0H
1F
1E
1%
1&
0(
1)
1:
0>
0+
0C
1<
0I
0F
0E
0%
0&
0)
1#
1=
1?
1B
1*
0@
1C
0#
0A
#245000
1!
15
#250000
0!
05
18
1-
06
1E
1%
#255000
1!
15
#260000
0!
05
08
0-
16
0E
0%
1;
1,
09
1F
1&
0:
#265000
1!
15
#270000
0!
05
18
1-
06
1I
1H
0F
0&
1(
1)
#275000
1!
15
#280000
0!
05
08
0-
16
0I
0H
1F
1&
0(
0)
0;
0,
19
0F
0&
1:
1>
1+
0C
0<
1H
1G
1'
1(
1#
0=
#285000
1!
15
#290000
0!
05
18
1-
1C
06
1I
0H
0G
1D
1$
0'
0(
1)
0#
#295000
1!
15
#300000
0!
05
08
0-
0C
16
0I
1H
1G
0D
0$
1'
1(
0)
1#
1;
1,
1C
09
0#
0:
#305000
1!
15
#310000
0!
05
18
1-
06
1F
1&
#315000
1!
15
#320000
0!
05
08
0-
16
0F
0&
0;
0,
0C
19
1#
1:
0>
0+
1C
1<
0H
0G
0'
0(
0#
1=
0?
0B
0*
1@
0C
1#
1A
#325000
1!
15
#330000
0!
05
18
1-
06
1I
1F
1E
1D
1$
1%
1&
1)
#335000
1!
15
#340000
0!
05
08
0-
16
0I
0F
0E
0D
0$
0%
0&
0)
1;
1,
1C
09
1G
1D
1$
1'
0#
0:
#345000
1!
15
#350000
0!
05
18
1-
06
0G
1E
1%
0'
#355000
1!
15
#360000
0!
05
08
0-
16
1G
0E
0%
1'
0;
0,
0C
19
0G
0D
0$
0'
1#
1:
1>
1+
1C
0<
1I
1F
1E
1%
1&
1)
0#
0=
#365000
1!
15
#370000
0!
05
18
1-
06
0I
1H
0F
0&
1(
0)
#375000
1!
15
#380000
0!
05
08
0-
16
1I
0H
1F
1&
0(
1)
1;
1,
09
0I
1H
0F
0E
0%
0&
1(
0)
0:
#385000
1!
15
#390000
0!
05
18
1-
0C
06
0H
1F
1E
1D
1$
1%
1&
0(
1#
#395000
1!
15
#400000
0!
05
08
0-
1C
16
1H
0F
0E
0D
0$
0%
0&
1(
0#
0;
0,
19
1I
0H
1F
1E
1%
1&
0(
1)
1:
0>
0+
0C
1<
0I
0F
0E
0%
0&
0)
1#
1=
1?
1B
1*
0@
1C
0#
0A
#405000
1!
15
#410000
0!
05
18
1-
06
1E
1%
#415000
1!
15
#420000
0!
05
08
0-
16
0E
0%
1;
1,
09
1F
1&
0:
#425000
1!
15
#430000
0!
05
18
1-
06
1I
1H
0F
0&
1(
1)
#435000
1!
15
#440000
0!
05
08
0-
16
0I
0H
1F
1&
0(
0)
0;
0,
19
0F
0&
1:
1>
1+
0C
0<
1H
1G
1'
1(
1#
0=
#445000
1!
15
#450000
0!
05
18
1-
1C
06
1I
0H
0G
1D
1$
0'
0(
1)
0#
#455000
1!
15
#460000
0!
05
08
0-
0C
16
0I
1H
1G
0D
0$
1'
1(
0)
1#
1;
1,
1C
09
0#
0:
#465000
1!
15
#470000
0!
05
18
1-
06
1F
1&
#475000
1!
15
#480000
0!
05
08
0-
16
0F
0&
0;
0,
0C
19
1#
1:
0>
0+
1C
1<
0H
0G
0'
0(
0#
1=
0?
0B
0*
1@
0C
1#
1A
#485000
1!
15
#490000
0!
05
18
1-
06
1I
1F
1E
1D
1$
1%
1&
1)
#495000
1!
15
#500000
0!
05
08
0-
16
0I
0F
0E
0D
0$
0%
0&
0)
1;
1,
1C
09
1G
1D
1$
1'
0#
0:
#505000
1!
15
#510000
0!
05
18
1-
06
0G
1E
1%
0'
#515000
1!
15
#520000
0!
05
08
0-
16
1G
0E
0%
1'
0;
0,
0C
19
0G
0D
0$
0'
1#
1:
1>
1+
1C
0<
1I
1F
1E
1%
1&
1)
0#
0=
#525000
1!
15
#530000
0!
05
18
1-
06
0I
1H
0F
0&
1(
0)
#535000
1!
15
#540000
0!
05
08
0-
16
1I
0H
1F
1&
0(
1)
1;
1,
09
0I
1H
0F
0E
0%
0&
1(
0)
0:
#545000
1!
15
#550000
0!
05
18
1-
0C
06
0H
1F
1E
1D
1$
1%
1&
0(
1#
#555000
1!
15
#560000
0!
05
08
0-
1C
16
1H
0F
0E
0D
0$
0%
0&
1(
0#
0;
0,
19
1I
0H
1F
1E
1%
1&
0(
1)
1:
0>
0+
0C
1<
0I
0F
0E
0%
0&
0)
1#
1=
1?
1B
1*
0@
1C
0#
0A
#565000
1!
15
#570000
0!
05
18
1-
06
1E
1%
#575000
1!
15
#580000
0!
05
08
0-
16
0E
0%
1;
1,
09
1F
1&
0:
#585000
1!
15
#590000
0!
05
18
1-
06
1I
1H
0F
0&
1(
1)
#595000
1!
15
#600000
0!
05
08
0-
16
0I
0H
1F
1&
0(
0)
0;
0,
19
0F
0&
1:
1>
1+
0C
0<
1H
1G
1'
1(
1#
0=
#605000
1!
15
#610000
0!
05
18
1-
1C
06
1I
0H
0G
1D
1$
0'
0(
1)
0#
#615000
1!
15
#620000
0!
05
08
0-
0C
16
0I
1H
1G
0D
0$
1'
1(
0)
1#
1;
1,
1C
09
0#
0:
#625000
1!
15
#630000
0!
05
18
1-
06
1F
1&
#635000
1!
15
#640000
0!
05
08
0-
16
0F
0&
0;
0,
0C
19
1#
1:
0>
0+
1C
1<
0H
0G
0'
0(
0#
1=
0?
0B
0*
1@
0C
1#
1A
#645000
1!
15
#650000
0!
05
18
1-
06
1I
1F
1E
1D
1$
1%
1&
1)
#655000
1!
15
#660000
0!
05
08
0-
16
0I
0F
0E
0D
0$
0%
0&
0)
1;
1,
1C
09
1G
1D
1$
1'
0#
0:
#665000
1!
15
#670000
0!
05
18
1-
06
0G
1E
1%
0'
#675000
1!
15
#680000
0!
05
08
0-
16
1G
0E
0%
1'
0;
0,
0C
19
0G
0D
0$
0'
1#
1:
1>
1+
1C
0<
1I
1F
1E
1%
1&
1)
0#
0=
#685000
1!
15
#690000
0!
05
18
1-
06
0I
1H
0F
0&
1(
0)
#695000
1!
15
#700000
0!
05
08
0-
16
1I
0H
1F
1&
0(
1)
1;
1,
09
0I
1H
0F
0E
0%
0&
1(
0)
0:
#705000
1!
15
#710000
0!
05
18
1-
0C
06
0H
1F
1E
1D
1$
1%
1&
0(
1#
#715000
1!
15
#720000
0!
05
08
0-
1C
16
1H
0F
0E
0D
0$
0%
0&
1(
0#
0;
0,
19
1I
0H
1F
1E
1%
1&
0(
1)
1:
0>
0+
0C
1<
0I
0F
0E
0%
0&
0)
1#
1=
1?
1B
1*
0@
1C
0#
0A
#725000
1!
15
#730000
0!
05
18
1-
06
1E
1%
#735000
1!
15
#740000
0!
05
08
0-
16
0E
0%
1;
1,
09
1F
1&
0:
#745000
1!
15
#750000
0!
05
18
1-
06
1I
1H
0F
0&
1(
1)
#755000
1!
15
#760000
0!
05
08
0-
16
0I
0H
1F
1&
0(
0)
0;
0,
19
0F
0&
1:
1>
1+
0C
0<
1H
1G
1'
1(
1#
0=
#765000
1!
15
#770000
0!
05
18
1-
1C
06
1I
0H
0G
1D
1$
0'
0(
1)
0#
#775000
1!
15
#780000
0!
05
08
0-
0C
16
0I
1H
1G
0D
0$
1'
1(
0)
1#
1;
1,
1C
09
0#
0:
#785000
1!
15
#790000
0!
05
18
1-
06
1F
1&
#795000
1!
15
#800000
0!
05
08
0-
16
0F
0&
0;
0,
0C
19
1#
1:
0>
0+
1C
1<
0H
0G
0'
0(
0#
1=
0?
0B
0*
1@
0C
1#
1A
#805000
1!
15
#810000
0!
05
18
1-
06
1I
1F
1E
1D
1$
1%
1&
1)
#815000
1!
15
#820000
0!
05
08
0-
16
0I
0F
0E
0D
0$
0%
0&
0)
1;
1,
1C
09
1G
1D
1$
1'
0#
0:
#825000
1!
15
#830000
0!
05
18
1-
06
0G
1E
1%
0'
#835000
1!
15
#840000
0!
05
08
0-
16
1G
0E
0%
1'
0;
0,
0C
19
0G
0D
0$
0'
1#
1:
1>
1+
1C
0<
1I
1F
1E
1%
1&
1)
0#
0=
#845000
1!
15
#850000
0!
05
18
1-
06
0I
1H
0F
0&
1(
0)
#855000
1!
15
#860000
0!
05
08
0-
16
1I
0H
1F
1&
0(
1)
1;
1,
09
0I
1H
0F
0E
0%
0&
1(
0)
0:
#865000
1!
15
#870000
0!
05
18
1-
0C
06
0H
1F
1E
1D
1$
1%
1&
0(
1#
#875000
1!
15
#880000
0!
05
08
0-
1C
16
1H
0F
0E
0D
0$
0%
0&
1(
0#
0;
0,
19
1I
0H
1F
1E
1%
1&
0(
1)
1:
0>
0+
0C
1<
0I
0F
0E
0%
0&
0)
1#
1=
1?
1B
1*
0@
1C
0#
0A
#885000
1!
15
#890000
0!
05
18
1-
06
1E
1%
#895000
1!
15
#900000
0!
05
08
0-
16
0E
0%
1;
1,
09
1F
1&
0:
#905000
1!
15
#910000
0!
05
18
1-
06
1I
1H
0F
0&
1(
1)
#915000
1!
15
#920000
0!
05
08
0-
16
0I
0H
1F
1&
0(
0)
0;
0,
19
0F
0&
1:
1>
1+
0C
0<
1H
1G
1'
1(
1#
0=
#925000
1!
15
#930000
0!
05
18
1-
1C
06
1I
0H
0G
1D
1$
0'
0(
1)
0#
#935000
1!
15
#940000
0!
05
08
0-
0C
16
0I
1H
1G
0D
0$
1'
1(
0)
1#
1;
1,
1C
09
0#
0:
#945000
1!
15
#950000
0!
05
18
1-
06
1F
1&
#955000
1!
15
#960000
0!
05
08
0-
16
0F
0&
0;
0,
0C
19
1#
1:
0>
0+
1C
1<
0H
0G
0'
0(
0#
1=
0?
0B
0*
1@
0C
1#
1A
#965000
1!
15
#970000
0!
05
18
1-
06
1I
1F
1E
1D
1$
1%
1&
1)
#975000
1!
15
#980000
0!
05
08
0-
16
0I
0F
0E
0D
0$
0%
0&
0)
1;
1,
1C
09
1G
1D
1$
1'
0#
0:
#985000
1!
15
#990000
0!
05
18
1-
06
0G
1E
1%
0'
#995000
1!
15
